Intro to R and Rstudio
…
---

## ... select 

Or select columns:

```r
select(population, country,year)
## # A tibble: 4,060 × 2
##    country      year
##    <chr>       <int>
##  1 Afghanistan  1995
##  2 Afghanistan  1996
##  3 Afghanistan  1997
##  4 Afghanistan  1998
##  5 Afghanistan  1999
##  6 Afghanistan  2000
##  7 Afghanistan  2001
##  8 Afghanistan  2002
##  9 Afghanistan  2003
## 10 Afghanistan  2004
## # … with 4,050 more rows
```
…
